<?xml version="1.0" encoding="utf-8"?>
<!-- Generator: Adobe Illustrator 19.2.0, SVG Export Plug-In . SVG Version: 6.00 Build 0)  -->
<!DOCTYPE svg PUBLIC "-//W3C//DTD SVG 1.1//EN" "http://www.w3.org/Graphics/SVG/1.1/DTD/svg11.dtd">
<svg version="1.1" xmlns="http://www.w3.org/2000/svg" xmlns:xlink="http://www.w3.org/1999/xlink" x="0px" y="0px"
	 viewBox="0 0 23.9859 24.0089" enable-background="new 0 0 23.9859 24.0089" xml:space="preserve">
<g id="Layer_1">
	<g>
		<path fill="#2C2C2C" d="M8,3v5H3V3H8 M11,0H0v11h11V0L11,0z"/>
	</g>
	<g>
		<path fill="#2C2C2C" d="M20.9859,3v5h-5V3H20.9859 M23.9859,0h-11v11h11V0L23.9859,0z"/>
	</g>
	<g>
		<path fill="#2C2C2C" d="M20.9859,16.0089v5h-5v-5H20.9859 M23.9859,13.0089h-11v11h11V13.0089L23.9859,13.0089z"/>
	</g>
	<g>
		<path fill="#2C2C2C" d="M8,16.0089v5H3v-5H8 M11,13.0089H0v11h11V13.0089L11,13.0089z"/>
	</g>
</g>
<g id="Layer_2" display="none">
	<g id="instagram_1_" display="inline" enable-background="new    ">
		<g id="instagram">
			<g>
				<path fill="#2C2C2C" d="M20.9963,0H2.9896C1.3323,0-0.0115,1.3437-0.0115,3.0011v18.0067c0,1.6574,1.3437,3.0011,3.0011,3.0011
					h18.0067c1.6574,0,3.0011-1.3438,3.0011-3.0011V3.0011C23.9974,1.3437,22.6537,0,20.9963,0z M7.3686,11.5066
					c0.0049-0.0476,0.015-0.0934,0.0214-0.1403c0.0158-0.1163,0.033-0.2318,0.0574-0.3451c0.0109-0.051,0.0259-0.1002,0.0386-0.1504
					c0.027-0.1073,0.0551-0.2142,0.0893-0.3185c0.0165-0.0495,0.0356-0.0972,0.0533-0.1459c0.0375-0.102,0.0765-0.203,0.1208-0.3016
					c0.0075-0.0169,0.0128-0.0345,0.0206-0.0514h0.0041c0.7383-1.5932,2.3472-2.701,4.2188-2.701
					c1.8712,0,3.4802,1.1078,4.2188,2.701h0.0041c0.0079,0.0169,0.0131,0.0345,0.021,0.0514
					c0.0439,0.0987,0.0833,0.1996,0.1204,0.3016c0.018,0.0488,0.0371,0.0964,0.0533,0.1459
					c0.0345,0.1043,0.0623,0.2108,0.0893,0.3185c0.0128,0.0503,0.0278,0.0994,0.039,0.1504c0.024,0.1133,0.0409,0.2288,0.057,0.3451
					c0.0068,0.0469,0.0161,0.0927,0.0218,0.1403c0.0169,0.1636,0.027,0.3294,0.027,0.4978c0,2.5697-2.0831,4.6517-4.6517,4.6517
					c-2.569,0-4.6517-2.0831-4.6517-4.6517C7.3412,11.836,7.3514,11.6702,7.3686,11.5066z M21.2964,20.1075
					c0,0.6632-0.5376,1.2004-1.2004,1.2004H3.8899c-0.6629,0-1.2004-0.5376-1.2004-1.2004V10.0537h2.2129
					c-0.1707,0.6212-0.2622,1.2755-0.2622,1.9507c0,4.0609,3.2918,7.3527,7.3527,7.3527s7.3527-3.2918,7.3527-7.3527
					c0-0.6753-0.0915-1.3295-0.2622-1.9507h2.2129V20.1075z M21.2964,6.3023c0,0.6629-0.5376,1.2004-1.2004,1.2004h-2.4009
					c-0.6629,0-1.2004-0.5376-1.2004-1.2004V3.9014c0-0.6629,0.5379-1.2004,1.2004-1.2004h2.4009
					c0.6632,0,1.2004,0.5372,1.2004,1.2004V6.3023z"/>
			</g>
		</g>
	</g>
</g>
<g id="Layer_3" display="none">
	<path id="Facebook" display="inline" fill="#2C2C2C" d="M8.0819,4.6417c0,0.6136,0,3.3079,0,3.3079H5.6543v4.0548h2.4276v12.0045
		h4.9618V12.0045h3.3346c0,0,0.3201-1.9474,0.4535-4.0548c-0.4268,0-3.7881,0-3.7881,0s0-2.3475,0-2.7744
		c0-0.4001,0.5335-0.9604,1.0671-0.9604c0.5335,0,1.6539,0,2.721,0c0-0.5602,0-2.4542,0-4.2149c-1.3872,0-2.9878,0-3.6814,0
		C7.9485,0,8.0819,4.0548,8.0819,4.6417z"/>
</g>
</svg>
