<?xml version="1.0" encoding="utf-8"?>
<!-- Generator: Adobe Illustrator 19.2.0, SVG Export Plug-In . SVG Version: 6.00 Build 0)  -->
<!DOCTYPE svg PUBLIC "-//W3C//DTD SVG 1.1//EN" "http://www.w3.org/Graphics/SVG/1.1/DTD/svg11.dtd">
<svg version="1.1" id="Capa_1" xmlns="http://www.w3.org/2000/svg" xmlns:xlink="http://www.w3.org/1999/xlink" x="0px" y="0px"
	 viewBox="0 0 98.1 98.1" style="enable-background:new 0 0 98.1 98.1;" xml:space="preserve">
<style type="text/css">
	.st0{fill:#FFFFFF;}
</style>
<g>
	<path class="st0" d="M33.5,97.6l47.1-47.1c0.8-0.8,0.8-2.1,0-2.8L33.5,0.6C33.1,0.2,32.6,0,32,0c-0.5,0-1,0.2-1.4,0.6l-13,13
		c-0.4,0.4-0.6,0.9-0.6,1.4c0,0.5,0.2,1,0.6,1.4l32.7,32.7L17.6,81.8c-0.8,0.8-0.8,2.1,0,2.8l13,13C31.4,98.3,32.7,98.3,33.5,97.6z"
		/>
</g>
</svg>
