[
  {
    "id": 1,
    "name": "Neo Jacket",
    "price": "0.09",
    "description": "Neo from the Matrix is selling his one and only jacket. This jacket gives you powers you couldn't imagine. All you have to do is believe...",
    "image_url": "https://imgur.com/3HHCNtr.jpg",
    "filename": "aUY4HRe.jpeg",
    "hash": "QmbW1kL6SRag1JDsHT6fjrnof8a8q3T6iRfNSafGdLiDVq"
  },
  {
    "id": 2,
    "name": "new test",
    "price": "0.01 USDC",
    "image_url": "https://i.imgur.com",
    "description": "what is this",
    "filename": "chapter3-1200x672.jpg.zip",
    "hash": "added.path"
  }
]